Mortality-ReadIN
…
mort.table

## # A tibble: 60,936 × 9
##     seqn eligstat mortstat ucod_leading diabetes hyperten permth_int permth_exm
##    <int>    <int>    <int>        <int>    <int>    <int>      <int>      <int>
##  1 31127        2       NA           NA       NA       NA         NA         NA
##  2 31128        2       NA           NA       NA       NA         NA         NA
##  3 31129        2       NA           NA       NA       NA         NA         NA
##  4 31130        1        1            4        0        1         10          8
##  5 31131        1        0           NA       NA       NA        159        158
##  6 31132        1        0           NA       NA       NA        167        167
##  7 31133        2       NA           NA       NA       NA         NA         NA
##  8 31134        1        0           NA       NA       NA        175        174
##  9 31135        2       NA           NA       NA       NA         NA         NA
## 10 31136        1        0           NA       NA       NA        170         NA
## # ℹ 60,926 more rows
## # ℹ 1 more variable: Year <int>
…
